EN fd16ce_mxilinx_kp_fir_sh NULL D:/XI_LABS/KP_lab5/KP_fir_sh.vhf sub00/vhpl04 1513253462
EN kp_fir_sh_muser_kp_fir_fin_sh NULL D:/XI_LABS/KP_lab5/KP_fir_fin_sh.vhf sub00/vhpl20 1513253458
EN fd16ce_mxilinx_kp_fir_fin_sh NULL D:/XI_LABS/KP_lab5/KP_fir_fin_sh.vhf sub00/vhpl14 1513253452
AR kp_ip_fir kp_ip_fir_a D:/XI_LABS/KP_lab5/ipcore_dir/KP_IP_fir.vhd sub00/vhpl13 1513253451
EN kp_fir_sh NULL D:/XI_LABS/KP_lab5/KP_fir_sh.vhf sub00/vhpl10 1513253468
EN add16_mxilinx_kp_fir_sh NULL D:/XI_LABS/KP_lab5/KP_fir_sh.vhf sub00/vhpl06 1513253464
AR kp_fir_sh behavioral D:/XI_LABS/KP_lab5/KP_fir_sh.vhf sub00/vhpl11 1513253469
EN fd8ce_mxilinx_kp_fir_fin_sh NULL D:/XI_LABS/KP_lab5/KP_fir_fin_sh.vhf sub00/vhpl18 1513253456
EN fd8ce_mxilinx_kp_fir_sh NULL D:/XI_LABS/KP_lab5/KP_fir_sh.vhf sub00/vhpl08 1513253466
AR kp_fir_sh_muser_kp_fir_fin_sh behavioral D:/XI_LABS/KP_lab5/KP_fir_fin_sh.vhf sub00/vhpl21 1513253459
EN kp_fir_fin_sh NULL D:/XI_LABS/KP_lab5/KP_fir_fin_sh.vhf sub00/vhpl22 1513253460
AR fd16ce_mxilinx_kp_fir_fin_sh behavioral D:/XI_LABS/KP_lab5/KP_fir_fin_sh.vhf sub00/vhpl15 1513253453
EN kp_k_mm_105 NULL D:/XI_LABS/KP_lab5/KP_K_mM_105.vhd sub00/vhpl00 1513253446
EN kp_k_mm_110 NULL D:/XI_LABS/KP_lab5/KP_K_mM_110.vhd sub00/vhpl02 1513253448
AR fd8ce_mxilinx_kp_fir_fin_sh behavioral D:/XI_LABS/KP_lab5/KP_fir_fin_sh.vhf sub00/vhpl19 1513253457
AR fd16ce_mxilinx_kp_fir_sh behavioral D:/XI_LABS/KP_lab5/KP_fir_sh.vhf sub00/vhpl05 1513253463
AR kp_k_mm_105 behavioral D:/XI_LABS/KP_lab5/KP_K_mM_105.vhd sub00/vhpl01 1513253447
AR kp_k_mm_110 behavioral D:/XI_LABS/KP_lab5/KP_K_mM_110.vhd sub00/vhpl03 1513253449
AR add16_mxilinx_kp_fir_fin_sh behavioral D:/XI_LABS/KP_lab5/KP_fir_fin_sh.vhf sub00/vhpl17 1513253455
AR fd8ce_mxilinx_kp_fir_sh behavioral D:/XI_LABS/KP_lab5/KP_fir_sh.vhf sub00/vhpl09 1513253467
AR add16_mxilinx_kp_fir_sh behavioral D:/XI_LABS/KP_lab5/KP_fir_sh.vhf sub00/vhpl07 1513253465
AR kp_fir_fin_sh behavioral D:/XI_LABS/KP_lab5/KP_fir_fin_sh.vhf sub00/vhpl23 1513253461
EN kp_ip_fir NULL D:/XI_LABS/KP_lab5/ipcore_dir/KP_IP_fir.vhd sub00/vhpl12 1513253450
EN add16_mxilinx_kp_fir_fin_sh NULL D:/XI_LABS/KP_lab5/KP_fir_fin_sh.vhf sub00/vhpl16 1513253454
